{
	"photos": {
		"page": 10,
		"pages": 60,
		"perpage": 2,
		"total": "120",
		"photo": [{
				"id": "29043424057",
				"owner": "165576905@N05",
				"secret": "4a57bc1374",
				"server": "848",
				"farm": 1,
				"title": "Kingfisher",
				"ispublic": 1,
				"isfriend": 0,
				"isfamily": 0,
				"description": {
					"_content": ""
				},
				"dateupload": "1534007093",
				"datetaken": "2018-06-23 13:52:33",
				"datetakengranularity": 0,
				"datetakenunknown": 0,
				"tags": "kingfisher rbge",
				"machine_tags": ""
			},
			{
				"id": "43953931241",
				"owner": "165576905@N05",
				"secret": "2a9aa357f8",
				"server": "1834",
				"farm": 2,
				"title": "Linnet",
				"ispublic": 0,
				"isfriend": 1,
				"isfamily": 1,
				"description": {
					"_content": ""
				},
				"dateupload": "1533852322",
				"datetaken": "2018-08-09 16:08:38",
				"datetakengranularity": 0,
				"datetakenunknown": 0,
				"tags": "musselburghlagoons linnet",
				"machine_tags": ""
			}
		]
	},
	"stat": "ok"
}